…
city_summary <- homicides_city %>%
  group_by(city_state) %>%
  summarize(
    total = n(),
    unsolved = sum(is_unsolved),
    .groups = "drop"
  )

city_summary
```

    ## # A tibble: 51 × 3
    ##    city_state      total unsolved
    ##    <chr>           <int>    <int>
    ##  1 Albuquerque, NM   378      146
    ##  2 Atlanta, GA       973      373
    ##  3 Baltimore, MD    2827     1825
    ##  4 Baton Rouge, LA   424      196
    ##  5 Birmingham, AL    800      347
    ##  6 Boston, MA        614      310
    ##  7 Buffalo, NY       521      319
    ##  8 Charlotte, NC     687      206
    ##  9 Chicago, IL      5535     4073
    ## 10 Cincinnati, OH    694      309
    ## # ℹ 41 more rows
…
#### Run the same for every city

``` r
city_results <- city_summary %>%
  mutate(
    prop_test = map2(unsolved, total, ~ prop.test(.x, .y)),
    prop_tidy = map(prop_test, tidy)
  ) %>%
  unnest(prop_tidy)

city_results
```

    ## # A tibble: 51 × 12
    ##    city_state    total unsolved prop_test estimate statistic   p.value parameter
    ##    <chr>         <int>    <int> <list>       <dbl>     <dbl>     <dbl>     <int>
    ##  1 Albuquerque,…   378      146 <htest>      0.386   19.1    1.23e-  5         1
    ##  2 Atlanta, GA     973      373 <htest>      0.383   52.5    4.32e- 13         1
    ##  3 Baltimore, MD  2827     1825 <htest>      0.646  239.     6.46e- 54         1
    ##  4 Baton Rouge,…   424      196 <htest>      0.462    2.27   1.32e-  1         1
    ##  5 Birmingham, …   800      347 <htest>      0.434   13.8    2.05e-  4         1
    ##  6 Boston, MA      614      310 <htest>      0.505    0.0407 8.40e-  1         1
    ##  7 Buffalo, NY     521      319 <htest>      0.612   25.8    3.73e-  7         1
    ##  8 Charlotte, NC   687      206 <htest>      0.300  109.     1.41e- 25         1
    ##  9 Chicago, IL    5535     4073 <htest>      0.736 1231.     1.28e-269         1
    ## 10 Cincinnati, …   694      309 <htest>      0.445    8.11   4.41e-  3         1
    ## # ℹ 41 more rows
    ## # ℹ 4 more variables: conf.low <dbl>, conf.high <dbl>, method <chr>,
    ## #   alternative <chr>
…
